{
  "appId": "io.ionic.starter",
  "appName": "test_app",
  "bundledWebRuntime": false,
  "npmClient": "npm",
  "webDir": "www",
  "plugins": {
    "SplashScreen": {
      "launchShowDuration": 0
    }
  },
  "cordova": {},
  "server": {
    "url": "http://localhost:8100"
  }
}
